id,codigo,curso
1,316130,ADMINISTRAÇÃO - SALVADOR
2,321140,ADMINISTRAÇÃO - BARREIRAS
3,187140,ARQUITETURA E URBANISMO - NOTURNO - SALVADOR
4,101140,ARQUITETURA E URBANISMO - SALVADOR
5,381140,ARQUIVOLOGIA - NOTURNO - SALVADOR
6,317141,ARQUIVOLOGIA - BACHARELADO - SALVADOR
7,317140,ARQUIVOLOGIA - BACHARELADO - SALVADOR
8,506140,ARTES CÊNICAS - DIRECAO TEATRAL - SALVADOR
9,510140,ARTES CÊNICAS - INTERPRETACAO TEATRAL - SALVADOR
10,501140,ARTES PLÁSTICAS - SALVADOR
11,580140,BACHARELADO INTERDISCIPLINAR EM ARTES - NOTURNO - SALVADOR
12,515140,BACHARELADO INTERDISCIPLINAR EM ARTES - SALVADOR
13,177140,BACHARELADO INTERDISCIPLINAR EM CIÊNCIA E TECNOLOGIA - BARREIRAS
14,189140,BACHARELADO INTERDISCIPLINAR EM CIÊNCIA E TECNOLOGIA - NOTURNO - SALVADOR
15,190140,BACHARELADO INTERDISCIPLINAR EM CIÊNCIA E TECNOLOGIA - DIURNO - BACHARELADO - SALVADOR
16,387140,BACHARELADO INTERDISCIPLINAR EM HUMANIDADES - BACHARELADO - NOTURNO - SALVADOR
17,327140,BACHARELADO INTERDISCIPLINAR EM HUMANIDADES - BACHARELADO - SALVADOR
18,388140,BACHARELADO INTERDISCIPLINAR EM HUMANIDADES - NOTURNO - BACHARELADO - BARREIRAS
19,286140,BACHARELADO INTERDISCIPLINAR EM SAÚDE - NOTURNO - SALVADOR
20,286141,BACHARELADO INTERDISCIPLINAR EM SAÚDE - NOTURNO - SALVADOR
21,226140,BACHARELADO INTERDISCIPLINAR EM SAÚDE - DIURNO - BACHARELADO - SALVADOR
22,303140,BIBLIOTECONOMIA E DOCUMENTAÇÃO - SALVADOR
23,284140,BIOTECNOLOGIA - NOTURNO - SALVADOR
24,221140,BIOTECNOLOGIA - VITÓRIA DA CONQUISTA
25,508440,CANTO - SALVADOR
26,112140,CIÊNCIA DA COMPUTAÇÃO - BACHARELADO - SALVADOR
27,220130,CIÊNCIAS BIOLÓGICAS - BACHARELADO - VITÓRIA DA CONQUISTA
28,215120,CIÊNCIAS BIOLÓGICAS - LIC. E BACH - BARREIRAS
29,280120,CIÊNCIAS BIOLÓGICAS - LICENCIATURA - NOTURNO - SALVADOR
30,202120,CIÊNCIAS BIOLÓGICAS - SALVADOR
31,380140,CIÊNCIAS CONTÁBEIS - NOTURNO - SALVADOR
32,304140,CIÊNCIAS CONTÁBEIS - SALVADOR
33,305140,CIÊNCIAS ECONÔMICAS - SALVADOR
34,306120,CIÊNCIAS SOCIAIS - LIC. E BACH - SALVADOR
35,502141,COMPOSIÇÃO E REGÊNCIA - BACHARELADO - SALVADOR
36,196120,COMPUTAÇÃO - LICENCIATURA - NOTURNO - SALVADOR
37,307140,COMUNICAÇÃO - JORNALISMO - SALVADOR
38,307141,COMUNICAÇÃO - PRODUCAO EM COMUNICACAO E CULTURA - SALVADOR
39,503130,DANÇA - BACHARELADO - SALVADOR
40,581120,DANÇA - LICENCIATURA - NOTURNO - SALVADOR
41,503120,DANÇA - SALVADOR
42,512140,DESIGN - SALVADOR
43,382140,DIREITO - NOTURNO - SALVADOR
44,308140,DIREITO - SALVADOR
45,315110,EDUCAÇÃO FÍSICA - LICENCIATURA - SALVADOR
46,203140,ENFERMAGEM - SALVADOR
47,216140,ENFERMAGEM - VITORIA DA CONQUISTA
48,128140,ENGENHARIA CIVIL - BARREIRAS
49,102140,ENGENHARIA CIVIL - SALVADOR
50,194140,ENGENHARIA DE AGRIMENSURA E CARTOGRÁFICA - BACHARELADO - NOTURNO - SALVADOR
51,186140,ENGENHARIA DE COMPUTAÇÃO - NOTURNO - SALVADOR
52,188140,ENGENHARIA DE CONTROLE E AUTOMAÇÃO DE PROCESSOS - NOTURNO - SALVADOR
53,103140,ENGENHARIA DE MINAS - SALVADOR
54,185140,ENGENHARIA DE PRODUÇÃO - NOTURNO - SALVADOR
55,104140,ENGENHARIA ELÉTRICA - SALVADOR
56,105140,ENGENHARIA MECÂNICA - SALVADOR
57,106140,ENGENHARIA QUÍMICA - SALVADOR
58,125140,ENGENHARIA SANITÁRIA E AMBIENTAL - BARREIRAS
59,107140,ENGENHARIA SANITÁRIA E AMBIENTAL - SALVADOR
60,116130,ESTATÍSTICA - BACHARELADO - SALVADOR
61,383130,ESTUDOS DE GÊNERO E DIVERSIDADE - BACHARELADO - NOTURNO - SALVADOR
62,281143,FARMÁCIA - NOTURNO - SALVADOR
63,217140,FARMÁCIA - VITORIA DA CONQUISTA
64,204143,FARMÁCIA - SALVADOR
65,309120,FILOSOFIA - LIC. E BACH. - SALVADOR
66,181120,FÍSICA - LICENCIATURA - NOTURNO - SALVADOR
67,176120,FÍSICA - LIC. E BACH - BARREIRAS
68,108120,FÍSICA - LIC. E BACH. - SALVADOR
69,222140,FISIOTERAPIA - DIURNO - BACHARELADO - SALVADOR
70,210140,FONOAUDIOLOGIA - SALVADOR
71,282140,GASTRONOMIA - BACHARELADO - NOTURNO - SALVADOR
72,118130,GEOFÍSICA - BACHARELADO - SALVADOR
73,182120,GEOGRAFIA - LICENCIATURA - NOTURNO - SALVADOR
74,124120,GEOGRAFIA - LIC. E BACH - BARREIRAS
75,109120,GEOGRAFIA - LIC. E BACH. - SALVADOR
76,110140,GEOLOGIA - SALVADOR
77,123140,GEOLOGIA - BACHARELADO - BARREIRAS
78,386120,HISTÓRIA - LICENCIATURA - NOTURNO - SALVADOR
79,310120,HISTÓRIA - LIC. E BACH. - SALVADOR
80,389120,HISTÓRIA - LICENCIATURA - NOTURNO - BARREIRAS
81,509441,INSTRUMENTO - SALVADOR
82,480120,LETRAS VERNÁCULAS - LICENCIATURA - NOTURNO - SALVADOR
83,401200,LETRAS VERNÁCULAS - LIC. E BACH. - SALVADOR
84,402200,LETRAS VERNÁCULAS E LINGUA ESTRANGEIRA MODERNA - LICENCIATURA - SALVAD
85,209120,LICENCIATURA EM CIÊNCIAS NATURAIS - SALVADOR
86,505120,LICENCIATURA EM DESENHO E PLÁSTICA - LICENCIATURA - SALVADOR
87,511140,LICENCIATURA EM TEATRO - SALVADOR
88,481120,LÍNGUA ESTRANGEIRA - INGLÊS/ESPANHOL - LICENCIATURA - NOTURNO - SALVADOR
89,403200,LINGUA ESTRANGEIRA MODERNA OU CLÁSSICA - LIC. E BACH. - SALVADOR
90,129120,MATEMÁTICA - LIC. E BACH. BARREIRAS
91,129130,MATEMÁTICA - LIC. E BACH. BARREIRAS
92,111130,MATEMÁTICA - BACHARELADO - SALVADOR
93,111120,MATEMÁTICA - LIC. E BACH. - SALVADOR
94,183120,MATEMÁTICA - LICENCIATURA - NOTURNO - SALVADOR
95,205140,MEDICINA - SALVADOR
96,206140,MEDICINA VETERINÁRIA - SALVADOR
97,311140,MUSEOLOGIA - SALVADOR
98,507120,MÚSICA - LICENCIATURA - SALVADOR
99,514140,MÚSICA POPULAR - SALVADOR
100,207140,NUTRIÇÃO - SALVADOR
101,218140,NUTRIÇÃO - VITÓRIA DA CONQUISTA
102,119140,OCEANOGRAFIA - BACHARELADO - SALVADOR
103,208140,ODONTOLOGIA - SALVADOR
104,385120,PEDAGOGIA - LICENCIATURA - NOTURNO - SALVADOR
105,312140,PEDAGOGIA - LICENCIATURA - SALVADOR
106,328140,PSICOLOGIA - DIURNO - BACHARELADO - VITÓRIA DA CONQUISTA
107,313133,PSICOLOGIA - FORMACAO DE PSICOLOGO - SALVADOR
108,113130,QUÍMICA - LIC. BACH. E QUÍM. INDUSTRIAL - SALVADOR
109,126120,QUÍMICA - LIC. E BACH. - BARREIRAS
110,184120,QUÍMICA - LICENCIATURA - NOTURNO - SALVADOR
111,283140,SAÚDE COLETIVA - NOTURNO - SALVADOR
112,314140,SECRETARIADO EXECUTIVO - BACHARELADO - SALVADOR
113,325140,SERVIÇO SOCIAL - BACHARELADO - SALVADOR
114,195140,SISTEMAS DE INFORMAÇÃO - BACHARELADO - NOTURNO - SALVADOR
115,513140,SUPERIOR DE DECORAÇÃO - SALVADOR
116,384140,SUPERIOR DE TECNOLOGIA EM GESTÃO PÚBLICA - NOTURNO - SALVADOR
117,197140,TRANSPORTE TERRESTRE - GESTÃO DE TRANSPORTE E TRÂNSITO
118,219140,ZOOTECNIA - SALVADOR